…
    ## # A tibble: 5 × 2
    ##    Year `mean(avg_value)`
    ##   <dbl>             <dbl>
    ## 1  2020              6.76
    ## 2  2021              5.79
    ## 3  2022              6.23
    ## 4  2023              6.08
    ## 5  2024              5.95

``` r
rect_data %>% filter(Biotic_index == "mHBI")
```

    ## # A tibble: 21 × 7
    ##    `Lake Name`   Biotic_index  xmin  xmax  ymin  ymax Category   
    ##    <chr>         <chr>        <dbl> <dbl> <dbl> <dbl> <chr>      
    ##  1 Halls Lake    mHBI          2019  2023  0     3.75 Very poor  
    ##  2 Halls Lake    mHBI          2019  2023  3.75  4.25 Poor       
    ##  3 Halls Lake    mHBI          2019  2023  4.25  5    Fairly poor
    ##  4 Halls Lake    mHBI          2019  2023  5     5.75 Fair       
    ##  5 Halls Lake    mHBI          2019  2023  5.75  6.5  Good       
    ##  6 Halls Lake    mHBI          2019  2023  6.5   7.25 Very good  
    ##  7 Halls Lake    mHBI          2019  2023  7.25 10    Excellent  
    ##  8 Big Hawk Lake mHBI          2020  2024  0     3.75 Very poor  
    ##  9 Big Hawk Lake mHBI          2020  2024  3.75  4.25 Poor       
    ## 10 Big Hawk Lake mHBI          2020  2024  4.25  5    Fairly poor
    ## # ℹ 11 more rows
…
